{
  "results": [
    {
      "id": 473526,
      "user_id": 3399619,
      "site_id": 773,
      "external_id": 0,
      "title": "23 Huge Stars You Won't Believe Have Never Been Nominated for Oscar",
      "slug": "actors-never-nominated-for-oscar",
      "data": {
        "text": "#23 gets our vote.&nbsp;",
        "related_url": ""
      },
      "private_data": null,
      "type": "default",
      "status": "listed",
      "created": "2017-01-20T16:50:23-0500",
      "updated": "2017-01-23T14:40:30-0500",
      "published": "2017-02-23T09:00:00-0500",
      "tags": [
        "meg ryan",
        "michael b. jordan",
        "movies",
        "oscar isaac",
        "oscars",
        "stars never nominated for oscar"
      ],
      "slide_ids": [
        4361476,
        4358329,
        4358405,
        4358402,
        4358195,
        4358326,
        4358437,
        4358330,
        4358436,
        4358404,
        4358328,
        4358232,
        4358203,
        4358398,
        4358325,
        4358241,
        4358331,
        4358188,
        4358324,
        4358228,
        4358192,
        4358439,
        4358108,
        4358332
      ],
      "image_url_large": "https://s.blogcdn.com/slideshows/images/slides/436/147/6/S4361476/slug/l/oscarnomsintro-1.jpg",
      "image_url_thumb": "https://s.blogcdn.com/slideshows/images/slides/436/147/6/S4361476/slug/s/oscarnomsintro-1.jpg",
      "system_tags": [],
      "metadata": {
        "facebooktitle": "23 Hollywood Stars That You Won't Believe Have Never Been Nominated for Oscar"
      },
      "system_metadata": [],
      "contributor": {
        "slug": "sharon-knolle",
        "byline": "Sharon Knolle",
        "title": "",
        "first_name": "Sharon",
        "last_name": "Knolle",
        "bio": "Sharon has been writing for Moviefone since 2009 and has also written for IMDB, USA Today, TV Guide and Forces of Geek.",
        "short_bio": "",
        "location": "",
        "metadata": {
          "image": "http://www.blogcdn.com/www.moviefone.com/media/2016/05/sknolle1.jpg",
          "slack": "",
          "twitter": "@sknolle",
          "facebook": "",
          "google": "",
          "linkedin": "",
          "instagram": "",
          "pinterest": "",
          "blog": "",
          "custom1": "",
          "custom2": "",
          "custom3": "",
          "image_thumbnail": "http://www.blogcdn.com/www.moviefone.com/media/2016/05/sknolle1.jpg"
        }
      }
    },
    {
      "id": 433884,
      "user_id": 5054450,
      "site_id": 773,
      "external_id": 0,
      "title": "18 Best Denzel Washington Performances, Ranked",
      "slug": "best-denzel-washington-performances-ranked",
      "data": {
        "text": "'King Kong ain't got nothing on me!'",
        "related_url": ""
      },
      "private_data": null,
      "type": "default",
      "status": "listed",
      "created": "2016-09-27T13:05:41-0400",
      "updated": "2017-01-09T14:57:24-0500",
      "published": "2017-02-15T11:05:00-0500",
      "tags": [
        "best denzel washington performances",
        "denzel washington",
        "fences",
        "malcolm x",
        "man on fire",
        "movies",
        "spike lee",
        "training day"
      ],
      "slide_ids": [
        4078925,
        4076886,
        4076885,
        4076896,
        4076888,
        4076891,
        4076890,
        4076894,
        4076892,
        4076917,
        4076887,
        4076893,
        4341063,
        4076889,
        4331777,
        4076895,
        4076897,
        4076898,
        4076899
      ],
      "image_url_large": "https://s.blogcdn.com/slideshows/images/slides/407/892/5/S4078925/slug/l/denzelbest-intro-1.jpg",
      "image_url_thumb": "https://s.blogcdn.com/slideshows/images/slides/407/892/5/S4078925/slug/s/denzelbest-intro-1.jpg",
      "system_tags": [],
      "metadata": {
        "facebooktitle": "18 Denzel Washington Roles That Prove He Is a National Treasure",
        "slideshowauthor": "Phil Pirrello and Jesse Schedeen"
      },
      "system_metadata": [],
      "contributor": {
        "slug": "jesse-schedeen",
        "byline": "Jesse Schedeen",
        "title": "",
        "first_name": "Jesse",
        "last_name": "Schedeen",
        "bio": "",
        "short_bio": "",
        "location": "North Carolina",
        "metadata": {
          "image": "https://s.blogcdn.com/www.moviefone.com/media/2017/01/img0834.jpg",
          "slack": "",
          "twitter": "@jschedeen",
          "facebook": "",
          "google": "",
          "linkedin": "https://www.linkedin.com/in/jesse-schedeen-6a38492b",
          "instagram": "",
          "pinterest": "",
          "blog": "",
          "custom1": "",
          "custom2": "",
          "custom3": "",
          "image_thumbnail": "https://s.blogcdn.com/www.moviefone.com/media/2017/01/img0834.jpg"
        }
      },
      "post_ids": [
        21483856,
        21491155
      ]
    },
    {
      "id": 476294,
      "user_id": 5035361,
      "site_id": 773,
      "external_id": 0,
      "title": "12 '90s Teen Movies That Changed Our Lives, Ranked",
      "slug": "best-90s-teen-movies",
      "data": {
        "related_url": "",
        "text": "'This one time... at band camp...'"
      },
      "private_data": null,
      "type": "default",
      "status": "listed",
      "created": "2017-01-25T15:33:55-0500",
      "updated": "2017-01-30T16:31:12-0500",
      "published": "2017-02-09T09:00:00-0500",
      "tags": [
        "'90s movies",
        "10 things i hate about you",
        "american pie",
        "clueless",
        "movies",
        "teen movies",
        "the craft"
      ],
      "slide_ids": [
        4419222,
        4365656,
        4365665,
        4419144,
        4365664,
        4365689,
        4365655,
        4365701,
        4365632,
        4365704,
        4365630,
        4365633,
        4365659
      ],
      "image_url_large": "https://s.blogcdn.com/slideshows/images/slides/441/922/2/S4419222/slug/l/teen-movies-90s-1.jpg",
      "image_url_thumb": "https://s.blogcdn.com/slideshows/images/slides/441/922/2/S4419222/slug/s/teen-movies-90s-1.jpg",
      "system_tags": [],
      "metadata": [],
      "system_metadata": [],
      "contributor": {
        "slug": "alana-altmann",
        "byline": "Alana Altmann",
        "title": null,
        "first_name": null,
        "last_name": null,
        "bio": null,
        "short_bio": null,
        "location": null,
        "metadata": {
          "image": "https://www.blogcdn.com/avatar/images/default.jpg",
          "image_thumbnail": "https://www.blogcdn.com/avatar/images/default.jpg"
        }
      }
    },
    {
      "id": 476290,
      "user_id": 5035361,
      "site_id": 773,
      "external_id": 0,
      "title": "9 Unfortgettable '90s Disaster Movies, Ranked By Ridiculousness",
      "slug": "best-90s-disaster-movies-ranked",
      "data": {
        "related_url": "",
        "text": "There's no disaster movie like a '90s disaster movie.&nbsp;"
      },
      "private_data": null,
      "type": "default",
      "status": "listed",
      "created": "2017-01-25T15:13:54-0500",
      "updated": "2017-01-30T13:34:39-0500",
      "published": "2017-02-07T09:00:00-0500",
      "tags": [
        "'90s movies",
        "dante's peak",
        "daylight",
        "disaster movies",
        "hard rain",
        "twister",
        "volcano"
      ],
      "slide_ids": [
        4419223,
        4365535,
        4365534,
        4365530,
        4365531,
        4365529,
        4365528,
        4366974,
        4365527,
        4365533
      ],
      "image_url_large": "https://s.blogcdn.com/slideshows/images/slides/441/922/3/S4419223/slug/l/90s-disaster-movies-1.jpg",
      "image_url_thumb": "https://s.blogcdn.com/slideshows/images/slides/441/922/3/S4419223/slug/s/90s-disaster-movies-1.jpg",
      "system_tags": [],
      "metadata": [],
      "system_metadata": [],
      "contributor": {
        "slug": "alana-altmann",
        "byline": "Alana Altmann",
        "title": null,
        "first_name": null,
        "last_name": null,
        "bio": null,
        "short_bio": null,
        "location": null,
        "metadata": {
          "image": "https://www.blogcdn.com/avatar/images/default.jpg",
          "image_thumbnail": "https://www.blogcdn.com/avatar/images/default.jpg"
        }
      }
    },
    {
      "id": 476308,
      "user_id": 5050879,
      "site_id": 773,
      "external_id": 0,
      "title": "28 Memorable TV Shows Based on Comic Books, Ranked From Worst to Best",
      "slug": "best-tv-shows-based-on-comic-books-ranked",
      "data": {
        "related_url": "",
        "text": "'Don't make me angry. You won't like me when I'm angry.'"
      },
      "private_data": null,
      "type": "default",
      "status": "listed",
      "created": "2017-01-25T19:04:12-0500",
      "updated": "2017-01-27T12:18:32-0500",
      "published": "2017-02-07T06:00:00-0500",
      "tags": [],
      "slide_ids": [
        4366189,
        4366190,
        4366191,
        4366192,
        4366193,
        4366194,
        4366195,
        4366196,
        4366197,
        4366198,
        4366199,
        4366200,
        4366201,
        4366202,
        4366203,
        4366204,
        4366205,
        4366206,
        4366207,
        4366208,
        4366209,
        4366210,
        4366211,
        4366212,
        4366213,
        4366214,
        4366215,
        4366216,
        4366217
      ],
      "image_url_large": "https://s.blogcdn.com/slideshows/images/slides/436/576/5/S4365765/slug/l/comicstv-intro-1.jpg",
      "image_url_thumb": "https://s.blogcdn.com/slideshows/images/slides/436/576/5/S4365765/slug/s/comicstv-intro-1.jpg",
      "system_tags": [],
      "metadata": {
        "facebooktitle": "28 TV Shows Based on Comics, Ranked From Worst to Best",
        "slideshowauthor": "Phil Pirrello"
      },
      "system_metadata": [],
      "contributor": {
        "slug": "phil-pirrello",
        "byline": "Phil Pirrello",
        "title": "",
        "first_name": "Phil",
        "last_name": "Pirrello",
        "bio": "Phil Pirrello is the Senior Editor for Moviefone. He enjoys collecting air guitars and is an amateur Rancor keeper.&nbsp;",
        "short_bio": "",
        "location": "",
        "metadata": {
          "image": "https://s.blogcdn.com/www.moviefone.com/media/2016/12/phil-pirello.png",
          "slack": "phil.pirrello",
          "twitter": "Phil_Pirrello",
          "facebook": "",
          "google": "",
          "linkedin": "",
          "instagram": "",
          "pinterest": "",
          "blog": "",
          "custom1": "",
          "custom2": "",
          "custom3": "",
          "image_thumbnail": "https://s.blogcdn.com/www.moviefone.com/media/2016/12/phil-pirello.png"
        }
      }
    },
    {
      "id": 476371,
      "user_id": 5054450,
      "site_id": 773,
      "external_id": 0,
      "title": "11 Superhero Movies You Love That Didn't Come From Marvel or DC",
      "slug": "superhero-movies-you-love-not-from-marvel-or-dc",
      "data": {
        "text": "'Where is my super suit?!'&nbsp;"
      },
      "private_data": null,
      "type": "default",
      "status": "listed",
      "created": "2017-01-26T11:09:01-0500",
      "updated": "2017-01-26T15:22:09-0500",
      "published": "2017-02-03T09:00:00-0500",
      "tags": [
        "comic book movies",
        "hellboy",
        "movies",
        "the incredibles",
        "unbreakable"
      ],
      "slide_ids": [
        4366889,
        4366890,
        4366891,
        4366892,
        4366893,
        4366894,
        4366895,
        4366896,
        4366897,
        4366898,
        4366899,
        4366900
      ],
      "image_url_large": "https://s.blogcdn.com/slideshows/images/slides/436/688/9/S4366889/slug/l/00-1.jpg",
      "image_url_thumb": "https://s.blogcdn.com/slideshows/images/slides/436/688/9/S4366889/slug/s/00-1.jpg",
      "system_tags": [],
      "metadata": {
        "facebooktitle": "11 Great Superhero Movies ",
        "slideshowauthor": "Jesse Schedeen"
      },
      "system_metadata": [],
      "contributor": {
        "slug": "jesse-schedeen",
        "byline": "Jesse Schedeen",
        "title": "",
        "first_name": "Jesse",
        "last_name": "Schedeen",
        "bio": "",
        "short_bio": "",
        "location": "North Carolina",
        "metadata": {
          "image": "https://s.blogcdn.com/www.moviefone.com/media/2017/01/img0834.jpg",
          "slack": "",
          "twitter": "@jschedeen",
          "facebook": "",
          "google": "",
          "linkedin": "https://www.linkedin.com/in/jesse-schedeen-6a38492b",
          "instagram": "",
          "pinterest": "",
          "blog": "",
          "custom1": "",
          "custom2": "",
          "custom3": "",
          "image_thumbnail": "https://s.blogcdn.com/www.moviefone.com/media/2017/01/img0834.jpg"
        }
      }
    },
    {
      "id": 476312,
      "user_id": 5050682,
      "site_id": 773,
      "external_id": 208752,
      "title": "The 26 Youngest Oscar Nominees & Winners",
      "slug": "youngest-oscar-nominees-and-winners-2",
      "data": {
        "text": "These kids are more talented than we'll ever be."
      },
      "private_data": null,
      "type": "huffpost",
      "status": "listed",
      "created": "2017-01-25T19:20:40-0500",
      "updated": "2017-01-30T11:47:31-0500",
      "published": "2017-02-03T04:06:00-0500",
      "tags": [
        "2017 academy awards",
        "oscars-2017",
        "youngest oscar nominees",
        "youngest oscar winners"
      ],
      "slide_ids": [
        4366218,
        4366219,
        4366220,
        4366221,
        4366222,
        4366223,
        4366224,
        4366225,
        4366226,
        4366227,
        4366228,
        4366229,
        4366230,
        4366231,
        4366232,
        4366233,
        4366234,
        4366235,
        4366236,
        4366237,
        4366238,
        4420772,
        4366239,
        4366240,
        4366241,
        4366242,
        4366243
      ],
      "image_url_large": "http://www.blogcdn.com/slideshows/images/slides/378/921/9/S3789219/slug/l/youngest-oscar-noms-main-1.jpg",
      "image_url_thumb": "http://www.blogcdn.com/slideshows/images/slides/378/921/9/S3789219/slug/s/youngest-oscar-noms-main-1.jpg",
      "system_tags": [
        "@oscarsdl"
      ],
      "metadata": [],
      "system_metadata": [],
      "contributor": {
        "slug": "rachel-horner",
        "byline": "Rachel Horner",
        "title": "",
        "first_name": "Rachel",
        "last_name": "Horner",
        "bio": "Rachel Horner is the Associate Editor at Moviefone in Los Angeles. She loves pop culture, fish tacos, and the great indoors. She's previously written for BuzzFeed, People Magazine, and JustJared.",
        "short_bio": "",
        "location": "",
        "metadata": {
          "image": "http://www.blogcdn.com/www.moviefone.com/media/2016/05/1063286010152909576613156817476442365956119n.jpg",
          "slack": "",
          "twitter": "racheleigh13",
          "facebook": "",
          "google": "",
          "linkedin": "",
          "instagram": "racheleigh13",
          "pinterest": "msrachelleigh",
          "blog": "",
          "custom1": "",
          "custom2": "",
          "custom3": "",
          "image_thumbnail": "http://www.blogcdn.com/www.moviefone.com/media/2016/05/1063286010152909576613156817476442365956119n.jpg"
        }
      }
    },
    {
      "id": 476277,
      "user_id": 5050682,
      "site_id": 773,
      "external_id": 141160,
      "title": "10 Animals Who Deserved Oscars",
      "slug": "animals-who-deserved-oscars",
      "data": {
        "text": "These animal actors deserve all the awards.",
        "related_url": ""
      },
      "private_data": null,
      "type": "converted_gallery",
      "status": "listed",
      "created": "2017-01-25T12:03:10-0500",
      "updated": "2017-01-25T16:30:00-0500",
      "published": "2017-02-01T05:12:00-0500",
      "tags": [
        "2017 academy awards",
        "animal actors",
        "oscars-2017"
      ],
      "slide_ids": [
        4365155,
        4365156,
        4365157,
        4365158,
        4365159,
        4365160,
        4365161,
        4365162,
        4365163,
        4365164,
        4365165
      ],
      "image_url_large": "http://www.blogcdn.com/slideshows/images/slides/333/347/3/S3333473/slug/l/oscaranimals-1.jpg",
      "image_url_thumb": "http://www.blogcdn.com/slideshows/images/slides/333/347/3/S3333473/slug/s/oscaranimals-1.jpg",
      "system_tags": [
        "@oscarsdl"
      ],
      "metadata": [],
      "system_metadata": [],
      "contributor": {
        "slug": "rachel-horner",
        "byline": "Rachel Horner",
        "title": "",
        "first_name": "Rachel",
        "last_name": "Horner",
        "bio": "Rachel Horner is the Associate Editor at Moviefone in Los Angeles. She loves pop culture, fish tacos, and the great indoors. She's previously written for BuzzFeed, People Magazine, and JustJared.",
        "short_bio": "",
        "location": "",
        "metadata": {
          "image": "http://www.blogcdn.com/www.moviefone.com/media/2016/05/1063286010152909576613156817476442365956119n.jpg",
          "slack": "",
          "twitter": "racheleigh13",
          "facebook": "",
          "google": "",
          "linkedin": "",
          "instagram": "racheleigh13",
          "pinterest": "msrachelleigh",
          "blog": "",
          "custom1": "",
          "custom2": "",
          "custom3": "",
          "image_thumbnail": "http://www.blogcdn.com/www.moviefone.com/media/2016/05/1063286010152909576613156817476442365956119n.jpg"
        }
      }
    },
    {
      "id": 417897,
      "user_id": 5054450,
      "site_id": 773,
      "external_id": 0,
      "title": "23 '90s Horror Movies You Have to See Before You Die",
      "slug": "best-90s-horror-movies",
      "data": {
        "text": "#13 won't just scare you, it will mess you up for life.&nbsp;"
      },
      "private_data": null,
      "type": "default",
      "status": "listed",
      "created": "2016-07-18T10:52:59-0400",
      "updated": "2017-01-27T14:39:08-0500",
      "published": "2017-01-31T09:00:00-0500",
      "tags": [
        "best 90s horror movies",
        "best horror movies",
        "candyman",
        "misery",
        "ringu",
        "silence of the lambs",
        "the sixth sense"
      ],
      "slide_ids": [
        4417706,
        3991625,
        3991623,
        3991624,
        3991621,
        3991633,
        3991618,
        3991615,
        3991612,
        3991616,
        3991626,
        3991622,
        3991632,
        3997615,
        3991631,
        3991619,
        3991617,
        3997616,
        3991627,
        3991613,
        3991614,
        3991636,
        3991635,
        3991634
      ],
      "image_url_large": "https://s.blogcdn.com/slideshows/images/slides/441/770/6/S4417706/slug/l/besthorror90s-intro-1.jpg",
      "image_url_thumb": "https://s.blogcdn.com/slideshows/images/slides/441/770/6/S4417706/slug/s/besthorror90s-intro-1.jpg",
      "system_tags": [],
      "metadata": {
        "facebooktitle": "23 Terrifying '90s Horror Films You Have to See Before You Die"
      },
      "system_metadata": [],
      "contributor": {
        "slug": "jesse-schedeen",
        "byline": "Jesse Schedeen",
        "title": "",
        "first_name": "Jesse",
        "last_name": "Schedeen",
        "bio": "",
        "short_bio": "",
        "location": "North Carolina",
        "metadata": {
          "image": "https://s.blogcdn.com/www.moviefone.com/media/2017/01/img0834.jpg",
          "slack": "",
          "twitter": "@jschedeen",
          "facebook": "",
          "google": "",
          "linkedin": "https://www.linkedin.com/in/jesse-schedeen-6a38492b",
          "instagram": "",
          "pinterest": "",
          "blog": "",
          "custom1": "",
          "custom2": "",
          "custom3": "",
          "image_thumbnail": "https://s.blogcdn.com/www.moviefone.com/media/2017/01/img0834.jpg",
          "twitter_user": "jschedeen"
        }
      },
      "post_ids": [
        21440121,
        21440680,
        21444264
      ]
    },
    {
      "id": 480648,
      "user_id": 5050879,
      "site_id": 773,
      "external_id": 0,
      "title": "22 Oscar-Winning Movies You Say You'll Watch But Never Do",
      "slug": "22-oscar-winning-movies-you-say-youll-watch-but-never-do",
      "data": {
        "related_url": "",
        "text": "Grab some popcorn, you guys.&nbsp;"
      },
      "private_data": null,
      "type": "default",
      "status": "listed",
      "created": "2017-01-27T19:41:42-0500",
      "updated": "2017-01-27T19:44:13-0500",
      "published": "2017-01-31T08:00:00-0500",
      "tags": [],
      "slide_ids": [
        4417966,
        4417982,
        4417986,
        4417967,
        4417968,
        4417969,
        4417970,
        4417971,
        4417972,
        4417973,
        4417974,
        4417975,
        4417976,
        4417977,
        4417978,
        4417979,
        4417980,
        4417981,
        4417983,
        4417984,
        4417985,
        4417988,
        4417987
      ],
      "image_url_large": "https://s.blogcdn.com/slideshows/images/slides/441/796/0/S4417960/slug/l/oscarnowatch1-1.jpg",
      "image_url_thumb": "https://s.blogcdn.com/slideshows/images/slides/441/796/0/S4417960/slug/s/oscarnowatch1-1.jpg",
      "system_tags": [],
      "metadata": {
        "slideshowauthor": "Phil Pirrello"
      },
      "system_metadata": [],
      "contributor": {
        "slug": "phil-pirrello",
        "byline": "Phil Pirrello",
        "title": "",
        "first_name": "Phil",
        "last_name": "Pirrello",
        "bio": "Phil Pirrello is the Senior Editor for Moviefone. He enjoys collecting air guitars and is an amateur Rancor keeper.&nbsp;",
        "short_bio": "",
        "location": "",
        "metadata": {
          "image": "https://s.blogcdn.com/www.moviefone.com/media/2016/12/phil-pirello.png",
          "slack": "phil.pirrello",
          "twitter": "Phil_Pirrello",
          "facebook": "",
          "google": "",
          "linkedin": "",
          "instagram": "",
          "pinterest": "",
          "blog": "",
          "custom1": "",
          "custom2": "",
          "custom3": "",
          "image_thumbnail": "https://s.blogcdn.com/www.moviefone.com/media/2016/12/phil-pirello.png"
        }
      }
    }
  ],
  "ids": [
    473526,
    433884,
    476294,
    476290,
    476308,
    476371,
    476312,
    476277,
    417897,
    480648
  ],
  "page": 1,
  "page_size": 10,
  "next_page_size": 10,
  "total_results": 2030,
  "total_pages": 203
}